<?xml version="1.0" encoding="UTF-8"?>
<session version="1.0">
<refactoring comment="Move package &apos;iam.amercado.partit&apos; to &apos;MO3PROGRAMACIO/src&apos;&#x0D;&#x0A;- Original project: &apos;MerAlbM03UF4P2&apos;&#x0D;&#x0A;- Destination element: &apos;MO3PROGRAMACIO/src&apos;&#x0D;&#x0A;- Original element: &apos;MerAlbM03UF4P2/src/iam.amercado.partit&apos;&#x0D;&#x0A;- Update references to refactored element" description="Move package" destination="=MO3PROGRAMACIO/src" element1="/src&lt;iam.amercado.partit" flags="589830" fragments="1" id="org.eclipse.jdt.ui.move" policy="org.eclipse.jdt.ui.movePackages" stamp="1454537589064" version="1.0"/>
</session>