<?xml version="1.0" encoding="UTF-8"?>
<session version="1.0">
<refactoring comment="Rename local variable &apos;nomEquipo&apos; in &apos;iam.solucio.lliga.Menu.baixaEquip(...)&apos; to &apos;nomEquip&apos;&#x0D;&#x0A;- Original project: &apos;test lliga&apos;&#x0D;&#x0A;- Original element: &apos;iam.solucio.lliga.Menu.baixaEquip(ArrayList&lt;Equip&gt;).nomEquipo&apos;&#x0D;&#x0A;- Renamed element: &apos;nomEquipo&apos;&#x0D;&#x0A;- Update references to refactored element" description="Rename local variable &apos;nomEquipo&apos;" id="org.eclipse.jdt.ui.rename.local.variable" input="/src&lt;iam.solucio.lliga{Menu.java[Menu~baixaEquip~QArrayList\&lt;QEquip;&gt;;@nomEquipo!3693!3709!3700!3708!QString;!0!false" name="nomEquip" references="true" stamp="1456768325847" version="1.0"/>
</session>